{
  "acl": {
    "enabled": true,    // 啟用 ACL 之後，預設在 Consul Web UI 上 KV 和 ACL 頁面就需要使用 master token 登入，然後就可以建立其他 Policy、Role 和 ACL Token
    "default_policy": "deny",
    "down_policy": "extend-cache",
    "tokens": {
      "master": "8b65c465-1a87-4740-b38c-a4380907f2db"
    }
  }
}
